…
-facet grid function, provides more control 
ggplot(data = yearly_sex_count, mapping = aes(x= year, y= n, color = sex)) +geom_line() + facet_grid(rows= vars(sex), cols = vars(genus))
- or remove columns and treat genus only
ggplot(data = yearly_sex_count, mapping = aes(x= year, y= n, color = sex)) +geom_line() + facet_grid(rows= vars(genus))
--facet very flexible - great for highlighting averages, trends, oddities
--can utilize theme to clean up and make more visually pleasing
ggplot(data = yearly_sex_count, mapping = aes(x= year, y= n, color = sex)) +geom_line() + facet_wrap(vars(genus)) + 
+ theme_bw() - strips out all color that isn't black and white outside of what has been assigned color - prints cleaner
for the challenge:
  yearly_avg_wgt <- surveys_complete %>% 
+ group_by(year, species_id) %>% 
+ summarize(avg_wgt = mean(weight))
`summarise()` regrouping output by 'year' (override with `.groups` argument)
> yearly_avg_wgt
# A tibble: 332 x 3
# Groups:   year [26]
    year species_id avg_wgt
   <dbl> <chr>        <dbl>
 1  1977 DM           41.1 
 2  1977 DO           42.7 
 3  1977 DS          122.  
 4  1977 OL           21   
 5  1977 OX           22   
 6  1977 PE           19.5 
 7  1977 PF            7.14
 8  1977 PP           15.3 
 9  1977 RM           10   
10  1978 DM           40.8 
# … with 322 more rows
…
