Introduction to Linear Models: Building and Interpreting Linear Regressions • compbio2020
…
# Gives R^2 (and some other values, stay tuned!!!) in tidy form
broom::glance(model_fit)

## # A tibble: 1 x 12
##   r.squared adj.r.squared sigma statistic   p.value    df logLik   AIC   BIC
##       <dbl>         <dbl> <dbl>     <dbl>     <dbl> <dbl>  <dbl> <dbl> <dbl>
## 1     0.967         0.967 0.627     5746. 3.13e-148     1  -189.  385.  395.
## # … with 3 more variables: deviance <dbl>, df.residual <int>, nobs <int>

## Gives a whoooole bunch of under-the-hood info in tidy form - tacked onto the data itself!!!
broom::augment(model_fit)

## # A tibble: 200 x 8
##    body_depth carapace_length .fitted   .resid .std.resid    .hat .sigma .cooksd
##         <dbl>           <dbl>   <dbl>    <dbl>      <dbl>   <dbl>  <dbl>   <dbl>
##  1        7              16.1    6.46  0.540      0.875   0.0304   0.627 1.20e-2
##  2        7.4            18.1    7.41 -0.00596   -0.00963 0.0244   0.628 1.16e-6
##  3        7.7            19      7.83 -0.132     -0.212   0.0220   0.628 5.08e-4
##  4        8.2            20.1    8.35 -0.152     -0.245   0.0193   0.628 5.90e-4
##  5        8.2            20.3    8.45 -0.247     -0.397   0.0188   0.628 1.51e-3
##  6        9.8            23      9.72  0.0764     0.123   0.0132   0.628 1.01e-4
##  7        9.8            23.8   10.1  -0.302     -0.485   0.0118   0.628 1.41e-3
##  8       10.4            24.5   10.4  -0.0331    -0.0532  0.0107   0.628 1.53e-5
##  9        9.7            24.2   10.3  -0.591     -0.949   0.0112   0.627 5.10e-3
## 10       10.3            25.2   10.8  -0.464     -0.744   0.00973  0.627 2.72e-3
## # … with 190 more rows
…
Notably there is another neat way to get the residuals using the package modelr (within tidyverse, but needs to be loaded). We will use several more functions from this VERY helpful (but caution, often times very advanced) package soon!. The function add_residuals() can be used this way:

## first argument is the data itself, second is the model object
## output column `resid` contains the goods
modelr::add_residuals(crabs, model_fit)

## # A tibble: 200 x 8
##    color sex   frontal_lobe rear_width carapace_length carapace_width body_depth
##    <chr> <chr>        <dbl>      <dbl>           <dbl>          <dbl>      <dbl>
##  1 blue  M              8.1        6.7            16.1           19          7  
##  2 blue  M              8.8        7.7            18.1           20.8        7.4
##  3 blue  M              9.2        7.8            19             22.4        7.7
##  4 blue  M              9.6        7.9            20.1           23.1        8.2
##  5 blue  M              9.8        8              20.3           23          8.2
##  6 blue  M             10.8        9              23             26.5        9.8
##  7 blue  M             11.1        9.9            23.8           27.1        9.8
##  8 blue  M             11.6        9.1            24.5           28.4       10.4
##  9 blue  M             11.8        9.6            24.2           27.8        9.7
## 10 blue  M             11.8       10.5            25.2           29.3       10.3
## # … with 190 more rows, and 1 more variable: resid <dbl>
…
